unlp/fjguerra/yupichay/domain/JavaCodeAnalisys.class
unlp/fjguerra/yupichay/annotations/Traces.class
unlp/fjguerra/yupichay/processor/php/PhpProcessor.class
unlp/fjguerra/yupichay/util/FileUtility.class
unlp/fjguerra/yupichay/processor/php/PhpAnnotationClassProcessor.class
unlp/fjguerra/yupichay/domain/CodeFragment.class
unlp/fjguerra/yupichay/controllers/IndexController.class
unlp/fjguerra/yupichay/controllers/SnippetController.class
unlp/fjguerra/yupichay/processor/java/AnnotationMethodProcessor.class
unlp/fjguerra/yupichay/processor/java/SnippetMethodProcessor.class
unlp/fjguerra/yupichay/processor/java/SnippetClassProcessor.class
unlp/fjguerra/yupichay/repository/ItemRepository.class
unlp/fjguerra/yupichay/controllers/SymbolController.class
unlp/fjguerra/yupichay/controllers/ProjectController.class
unlp/fjguerra/yupichay/YupichayApplication.class
unlp/fjguerra/yupichay/services/SymbolService.class
unlp/fjguerra/yupichay/domain/Snippet.class
unlp/fjguerra/yupichay/domain/Item.class
unlp/fjguerra/yupichay/processor/java/AnnotationClassProcessor.class
unlp/fjguerra/yupichay/repository/ProjectRepository.class
unlp/fjguerra/yupichay/domain/Symbol.class
unlp/fjguerra/yupichay/processor/php/PhpAnnotationMethodProcessor.class
unlp/fjguerra/yupichay/annotations/Trace.class
unlp/fjguerra/yupichay/domain/Project.class
unlp/fjguerra/yupichay/domain/PhpCodeAnalisys.class
unlp/fjguerra/yupichay/domain/OtherCodeAnalisys.class
unlp/fjguerra/yupichay/processor/php/PhpSnippetMethodProcessor.class
unlp/fjguerra/yupichay/controllers/ItemController.class
unlp/fjguerra/yupichay/repository/SnippetRepository.class
unlp/fjguerra/yupichay/domain/CodeAnalisysStrategy.class
unlp/fjguerra/yupichay/controllers/ProcessorController.class
unlp/fjguerra/yupichay/processor/php/PhpSnippetClassProcessor.class
unlp/fjguerra/yupichay/services/ItemService.class
unlp/fjguerra/yupichay/repository/SymbolRepository.class
unlp/fjguerra/yupichay/domain/CodeFragmentSelected.class
